%!PS-Adobe-3.0 EPSF-3.0
%%DocumentNeededResources: font Helvetica
%%+ font Helvetica-Bold
%%+ font Helvetica-Oblique
%%+ font Helvetica-BoldOblique
%%+ font Symbol
%%Title: R Graphics Output
%%Creator: R Software
%%Pages: (atend)
%%BoundingBox: 0 0 504 504
%%EndComments
%%BeginProlog
/bp  { gs sRGB gs } def
% begin .ps.prolog
/gs  { gsave } bind def
/gr  { grestore } bind def
/ep  { showpage gr gr } bind def
/m   { moveto } bind def
/l  { rlineto } bind def
/np  { newpath } bind def
/cp  { closepath } bind def
/f   { fill } bind def
/o   { stroke } bind def
/c   { newpath 0 360 arc } bind def
/r   { 4 2 roll moveto 1 copy 3 -1 roll exch 0 exch rlineto 0 rlineto -1 mul 0 exch rlineto closepath } bind def
/p1  { stroke } bind def
/p2  { gsave bg fill grestore newpath } bind def
/p3  { gsave bg fill grestore stroke } bind def
/p6  { gsave bg eofill grestore newpath } bind def
/p7  { gsave bg eofill grestore stroke } bind def
/t   { 5 -2 roll moveto gsave rotate
       1 index stringwidth pop
       mul neg 0 rmoveto show grestore } bind def
/ta  { 4 -2 roll moveto gsave rotate show } bind def
/tb  { 2 -1 roll 0 rmoveto show } bind def
/cl  { grestore gsave newpath 3 index 3 index moveto 1 index
       4 -1 roll lineto  exch 1 index lineto lineto
       closepath clip newpath } bind def
/rgb { setrgbcolor } bind def
/s   { scalefont setfont } bind def
% end   .ps.prolog
/sRGB { [ /CIEBasedABC
          << /DecodeLMN
               [ { dup 0.03928 le
                        {12.92321 div}
                        {0.055 add 1.055 div 2.4 exp }
                     ifelse
                 } bind dup dup
               ]
             /MatrixLMN [0.412457 0.212673 0.019334
                         0.357576 0.715152 0.119192
                         0.180437 0.072175 0.950301]
             /WhitePoint [0.9505 1.0 1.0890]
           >>
         ] setcolorspace } bind def
/srgb { setcolor } bind def
%%IncludeResource: font Helvetica
/Helvetica findfont
dup length dict begin
  {1 index /FID ne {def} {pop pop} ifelse} forall
  /Encoding ISOLatin1Encoding def
  currentdict
  end
/Font1 exch definefont pop
%%IncludeResource: font Helvetica-Bold
/Helvetica-Bold findfont
dup length dict begin
  {1 index /FID ne {def} {pop pop} ifelse} forall
  /Encoding ISOLatin1Encoding def
  currentdict
  end
/Font2 exch definefont pop
%%IncludeResource: font Helvetica-Oblique
/Helvetica-Oblique findfont
dup length dict begin
  {1 index /FID ne {def} {pop pop} ifelse} forall
  /Encoding ISOLatin1Encoding def
  currentdict
  end
/Font3 exch definefont pop
%%IncludeResource: font Helvetica-BoldOblique
/Helvetica-BoldOblique findfont
dup length dict begin
  {1 index /FID ne {def} {pop pop} ifelse} forall
  /Encoding ISOLatin1Encoding def
  currentdict
  end
/Font4 exch definefont pop
%%IncludeResource: font Symbol
/Symbol findfont
dup length dict begin
  {1 index /FID ne {def} {pop pop} ifelse} forall
  currentdict
  end
/Font5 exch definefont pop
%%EndProlog
%%Page: 1 1
bp
0.00 0.00 504.00 504.00 cl
/bg { 0 0 0 srgb } def
0 0 0 srgb
0.75 setlinewidth
[] 0 setdash
1 setlinecap
1 setlinejoin
10.00 setmiterlimit
74.40 73.44 112.94 327.64 r p3
/bg { 0.7490 0.7490 0.7490 srgb } def
209.93 73.44 112.94 300.16 r p3
/bg { 0.5412 0.5412 0.5412 srgb } def
345.46 73.44 112.94 313.67 r p3
0.00 0.00 504.00 504.00 cl
/Font1 findfont 12 s
0 0 0 srgb
135.18 59.04 (IDFSA-IColR) 1 90 t
270.71 59.04 (C1G2) 1 90 t
406.24 59.04 (DBTSA) 1 90 t
0.00 0.00 504.00 504.00 cl
/Font1 findfont 12 s
0 0 0 srgb
12.96 259.20 (Etiquetas/segundo) .5 90 t
0.00 0.00 504.00 504.00 cl
0 0 0 srgb
0.75 setlinewidth
[] 0 setdash
1 setlinecap
1 setlinejoin
10.00 setmiterlimit
np
59.04 73.44 m
0 371.52 l
o
np
59.04 73.44 m
-7.20 0 l
o
np
59.04 126.51 m
-7.20 0 l
o
np
59.04 179.59 m
-7.20 0 l
o
np
59.04 232.66 m
-7.20 0 l
o
np
59.04 285.74 m
-7.20 0 l
o
np
59.04 338.81 m
-7.20 0 l
o
np
59.04 391.89 m
-7.20 0 l
o
np
59.04 444.96 m
-7.20 0 l
o
/Font1 findfont 12 s
44.64 69.13 (0) 1 0 t
44.64 122.21 (100) 1 0 t
44.64 175.28 (200) 1 0 t
44.64 228.35 (300) 1 0 t
44.64 281.43 (400) 1 0 t
44.64 334.50 (500) 1 0 t
44.64 387.58 (600) 1 0 t
44.64 440.65 (700) 1 0 t
59.04 73.44 473.76 444.96 cl
/Font1 findfont 12 s
0 0 0 srgb
130.87 408.28 (617.32) .5 0 t
266.40 380.80 (565.54) .5 0 t
401.93 394.31 (591.01) .5 0 t
0.8275 0.8275 0.8275 srgb
0.75 setlinewidth
[ 0.00 3.00] 0 setdash
1 setlinecap
1 setlinejoin
10.00 setmiterlimit
np
108.28 73.44 m
0 371.52 l
o
np
164.75 73.44 m
0 371.52 l
o
np
221.22 73.44 m
0 371.52 l
o
np
277.69 73.44 m
0 371.52 l
o
np
334.16 73.44 m
0 371.52 l
o
np
390.64 73.44 m
0 371.52 l
o
np
447.11 73.44 m
0 371.52 l
o
np
59.04 73.44 m
414.72 0 l
o
np
59.04 126.51 m
414.72 0 l
o
np
59.04 179.59 m
414.72 0 l
o
np
59.04 232.66 m
414.72 0 l
o
np
59.04 285.74 m
414.72 0 l
o
np
59.04 338.81 m
414.72 0 l
o
np
59.04 391.89 m
414.72 0 l
o
np
59.04 444.96 m
414.72 0 l
o
ep
%%Trailer
%%Pages: 1
%%EOF
