\relax 
\catcode `"\active 
\citation{finkenzeller:2010}
\citation{haifeng:2013}
\select@language{brazil}
\@writefile{toc}{\select@language{brazil}}
\@writefile{lof}{\select@language{brazil}}
\@writefile{lot}{\select@language{brazil}}
\@writefile{toc}{\contentsline {section}{\numberline {1}Introdu\c c\~ao}{1}}
\citation{mota.ns2:2013}
\citation{mota:2014}
\citation{epc:2008}
\citation{vinod:2012}
\citation{schoute:1983}
\citation{eomlee:2010}
\citation{haifeng:2013}
\citation{ce:li:2011}
\citation{wu:2015}
\citation{ce:li:2011}
\citation{wu:2015}
\citation{ce:shin:2009}
\citation{ce:natali:2010}
\citation{ce:li:2011}
\citation{ce:choi:2012}
\citation{wu:2015}
\citation{prodanoff:2010}
\@writefile{toc}{\contentsline {section}{\numberline {2}O Problema do Efeito Captura}{2}}
\@writefile{lof}{\contentsline {figure}{\numberline {1}{\ignorespaces  {Exemplo de efeito captura}}}{3}}
\newlabel{fig:captureeffect}{{1}{3}}
\@writefile{toc}{\contentsline {section}{\numberline {3}Trabalhos relacionados}{3}}
\newlabel{sec:relatedwork}{{3}{3}}
\citation{schaum:2002}
\citation{haifeng:2013}
\citation{chen:2014}
\@writefile{toc}{\contentsline {section}{\numberline {4}Algoritmo proposto}{4}}
\newlabel{sec:proposed}{{4}{4}}
\@writefile{toc}{\contentsline {section}{\numberline {5}An\'alise de desempenho}{4}}
\newlabel{sec:analysis}{{5}{4}}
\@writefile{lof}{\contentsline {figure}{\numberline {2}{\ignorespaces IDFSA-IcolR: Fluxograma do mecanismo de estima\c c\~ao.}}{5}}
\newlabel{fig:estimation}{{2}{5}}
\newlabel{eq:binomial}{{1}{5}}
\newlabel{eq:valor.esperado.r}{{2}{5}}
\newlabel{eq:0}{{3}{5}}
\newlabel{eq:1.r}{{4}{5}}
\newlabel{eq:k}{{5}{5}}
\newlabel{alg:leitor}{{4}{6}}
\@writefile{loa}{\contentsline {algorithm}{\numberline {1}{\ignorespaces Opera\c c\~ao principal do leitor}}{6}}
\newlabel{eq:estimation.slots}{{5}{6}}
\newlabel{cor:1}{{1}{6}}
\@writefile{loa}{\contentsline {algorithm}{\numberline {2}{\ignorespaces Fun\c c\~ao de tratamento de \textit  {slot} de colis\~ao.}}{7}}
\newlabel{alg:collision}{{2}{7}}
\newlabel{alg:tag}{{4}{7}}
\@writefile{loa}{\contentsline {algorithm}{\numberline {3}{\ignorespaces Opera\c c\~ao da etiqueta}}{7}}
\newlabel{eq:k.z}{{6}{7}}
\@writefile{lof}{\contentsline {figure}{\numberline {3}{\ignorespaces {Desempenho do procedimento de estima\c c\~ao.}}}{8}}
\newlabel{fig:estimation.performance}{{3}{8}}
\citation{vinod:2012}
\citation{vinod:2012}
\citation{klair:2009}
\citation{chen:2015}
\citation{vinod:2012}
\citation{vinod:2012}
\citation{klair:2009}
\citation{vinod:2012}
\citation{klair:2009}
\@writefile{lof}{\contentsline {figure}{\numberline {4}{\ignorespaces {\textit  {Overhead} (em \textit  {slots}) do procedimento de estima\c c\~ao.}}}{9}}
\newlabel{fig:estimation.slots}{{4}{9}}
\@writefile{toc}{\contentsline {section}{\numberline {6}Sistema e Modelo Anal\IeC {\'\i }tico}{9}}
\citation{chen:2014}
\citation{epc:2008}
\citation{haifeng:2013}
\citation{he:2013}
\citation{chen:2015}
\@writefile{toc}{\contentsline {section}{\numberline {7}Simula\c c\~oes}{10}}
\newlabel{eq:total.slots.m}{{7}{10}}
\newlabel{eq:totaltime.m}{{8}{10}}
\newlabel{eq:sef.m}{{9}{10}}
\citation{klair:2009}
\citation{klair:2009}
\newlabel{eq:cef.m}{{10}{11}}
\newlabel{eq:etiquetas-segundo.m}{{11}{11}}
\newlabel{eq:energia.m}{{12}{11}}
\@writefile{toc}{\contentsline {section}{\numberline {8}Resultados}{11}}
\newlabel{sec:performance}{{8}{11}}
\@writefile{lof}{\contentsline {figure}{\numberline {5}{\ignorespaces {Efici\^encia do Sistema.}}}{11}}
\newlabel{fig:sef}{{5}{11}}
\@writefile{lof}{\contentsline {figure}{\numberline {6}{\ignorespaces {Efici\^encia do Sistema.}}}{12}}
\newlabel{fig:sef2}{{6}{12}}
\@writefile{lof}{\contentsline {figure}{\numberline {7}{\ignorespaces {Total de \textit  {slots}.}}}{12}}
\newlabel{fig:totalslots}{{7}{12}}
\citation{shakiba:2014}
\@writefile{lof}{\contentsline {figure}{\numberline {8}{\ignorespaces {Efici\^encia de uso do canal.}}}{13}}
\newlabel{fig:cef}{{8}{13}}
\citation{chen:2015}
\citation{chen:2015}
\citation{chen:2015}
\@writefile{lof}{\contentsline {figure}{\numberline {9}{\ignorespaces {Quantidade de \textit  {slots} de colis\~ao.}}}{14}}
\newlabel{fig:colisoes}{{9}{14}}
\@writefile{lof}{\contentsline {figure}{\numberline {10}{\ignorespaces {Tempo de identifica\c c\~ao.}}}{14}}
\newlabel{fig:tempo}{{10}{14}}
\citation{haifeng:2013}
\@writefile{lof}{\contentsline {figure}{\numberline {11}{\ignorespaces {Energia consumida durante a identifica\c c\~ao.}}}{15}}
\newlabel{fig:summary.tags}{{11}{15}}
\@writefile{toc}{\contentsline {section}{\numberline {9}Conclus\~oes}{15}}
\newlabel{sec:conclusion}{{9}{15}}
\bibstyle{IEEEtran}
\bibdata{sbc-template}
\bibcite{finkenzeller:2010}{1}
\bibcite{haifeng:2013}{2}
\bibcite{mota.ns2:2013}{3}
\bibcite{mota:2014}{4}
\@writefile{lof}{\contentsline {figure}{\numberline {12}{\ignorespaces {Energia consumida durante a identifica\c c\~ao.}}}{16}}
\newlabel{fig:energia}{{12}{16}}
\bibcite{epc:2008}{5}
\bibcite{vinod:2012}{6}
\bibcite{schoute:1983}{7}
\bibcite{eomlee:2010}{8}
\bibcite{ce:li:2011}{9}
\bibcite{wu:2015}{10}
\bibcite{ce:shin:2009}{11}
\bibcite{ce:natali:2010}{12}
\bibcite{ce:choi:2012}{13}
\bibcite{prodanoff:2010}{14}
\bibcite{schaum:2002}{15}
\bibcite{chen:2014}{16}
\bibcite{klair:2009}{17}
\bibcite{chen:2015}{18}
\bibcite{he:2013}{19}
\bibcite{shakiba:2014}{20}
