% Generated by IEEEtran.bst, version: 1.13 (2008/09/30)
\begin{thebibliography}{10}
\providecommand{\url}[1]{#1}
\csname url@samestyle\endcsname
\providecommand{\newblock}{\relax}
\providecommand{\bibinfo}[2]{#2}
\providecommand{\BIBentrySTDinterwordspacing}{\spaceskip=0pt\relax}
\providecommand{\BIBentryALTinterwordstretchfactor}{4}
\providecommand{\BIBentryALTinterwordspacing}{\spaceskip=\fontdimen2\font plus
\BIBentryALTinterwordstretchfactor\fontdimen3\font minus
  \fontdimen4\font\relax}
\providecommand{\BIBforeignlanguage}[2]{{%
\expandafter\ifx\csname l@#1\endcsname\relax
\typeout{** WARNING: IEEEtran.bst: No hyphenation pattern has been}%
\typeout{** loaded for the language `#1'. Using the pattern for}%
\typeout{** the default language instead.}%
\else
\language=\csname l@#1\endcsname
\fi
#2}}
\providecommand{\BIBdecl}{\relax}
\BIBdecl

\bibitem{finkenzeller:2010}
K.~Finkenzeller \emph{et~al.}, \emph{{RFID Handbook: Fundamentals and
  Applications in Contactless Smart Cards, Radio Frequency Identification and
  Near-field Communication}}.\hskip 1em plus 0.5em minus 0.4em\relax Wiley,
  2010.

\bibitem{haifeng:2013}
H.~Wu, Y.~Zeng, J.~Feng, and Y.~Gu, ``Binary tree slotted aloha for passive
  rfid tag anticollision,'' \emph{Parallel and Distributed Systems, IEEE
  Transactions on}, vol.~24, no.~1, pp. 19--31, 2013.

\bibitem{mota.ns2:2013}
R.~Perazzo Barbosa~Mota and D.~Batista, ``An ns-2 module for simulating passive
  rfid systems,'' in \emph{High Performance Computing and Communications 2013
  IEEE International Conference on Embedded and Ubiquitous Computing
  (HPCC-EUC), 2013 IEEE 10th International Conference on}, Nov 2013, pp.
  2263--2270.

\bibitem{mota:2014}
R.~P.~B. Mota and D.~M. Batista, ``{A Dynamic Frame Slotted ALOHA
  Anti-collision Algorithm for the Internet of Things},'' in \emph{Proceedings
  of the 29th Annual ACM Symposium on Applied Computing}.\hskip 1em plus 0.5em
  minus 0.4em\relax ACM, 2014, pp. 686--691.

\bibitem{epc:2008}
\BIBentryALTinterwordspacing
{EPCglobal, GS1 Inc.}, ``{EPCTM Radio-Frequency Identity Protocols Class-1
  Generation-2 UHF RFID Protocol for Communications at 860MHz-960MHz Version
  2.0.1},'' EPCGlobal Inc., Tech. Rep., April 2015. [Online]. Available:
  \url{http://www.gs1.org/epcrfid/epc-rfid-uhf-air-interface-protocol/2-0-1}
\BIBentrySTDinterwordspacing

\bibitem{vinod:2012}
V.~Namboodiri, M.~DeSilva, K.~Deegala, and S.~Ramamoorthy,
  ``\BIBforeignlanguage{{English}}{{An Extensive Study of Slotted Aloha-based
  RFID Anti-collision Protocols}},''
  \emph{\BIBforeignlanguage{{English}}{{Computer Communications}}}, vol.~{35},
  no.~{16}, pp. {1955--1966}, {2012}.

\bibitem{schoute:1983}
F.~Schoute, ``Dynamic frame length aloha,'' \emph{Communications, IEEE
  Transactions on}, vol.~31, no.~4, pp. 565--568, 1983.

\bibitem{eomlee:2010}
J.-B. Eom and T.-J. Lee, ``Accurate tag estimation for dynamic framed-slotted
  aloha in rfid systems,'' \emph{Communications Letters, IEEE}, vol.~14, no.~1,
  pp. 60--62, 2010.

\bibitem{ce:li:2011}
B.~Li and J.~Wang, ``{Efficient Anti-Collision Algorithm Utilizing the Capture
  Effect for ISO 18000-6C RFID Protocol},'' \emph{Communications Letters,
  IEEE}, vol.~15, no.~3, pp. 352--354, March 2011.

\bibitem{wu:2015}
H.~Wu and Y.~Zeng, ``{Passive RFID Tag Anticollision Algorithm for Capture
  Effect},'' \emph{Sensors Journal, IEEE}, vol.~15, no.~1, pp. 218--226,
  January 2015.

\bibitem{ce:shin:2009}
W.~J. Shin and J.~G. Kim, ``{A capture-aware access control method for enhanced
  RFID anti-collision performance},'' \emph{Communications Letters, IEEE},
  vol.~13, no.~5, pp. 354--356, May 2009.

\bibitem{ce:natali:2010}
C.-F. Natali, N.~Vaidya, and V.~Wu, ``{Expanding Horizon and Capture Effect in
  RFID Singulation},'' in \emph{Global Telecommunications Conference (GLOBECOM
  2010), 2010 IEEE}, December 2010, pp. 1--5.

\bibitem{ce:choi:2012}
S.~Choi, J.~Choi, and J.~Yoo, ``{An efficient anti-collision protocol for tag
  identification in RFID systems with capture effect},'' in \emph{Ubiquitous
  and Future Networks (ICUFN), 2012 Fourth International Conference on}, July
  2012, pp. 482--483.

\bibitem{prodanoff:2010}
\BIBentryALTinterwordspacing
Z.~G. Prodanoff, ``{Optimal frame size analysis for framed slotted ALOHA based
  RFID networks},'' \emph{Computer Communications}, vol.~33, no.~5, pp. 648 --
  653, 2010. [Online]. Available:
  \url{http://www.sciencedirect.com/science/article/pii/S0140366409002965}
\BIBentrySTDinterwordspacing

\bibitem{schaum:2002}
M.~Spiegel, J.~Schiller, and A.~Srinivasan, \emph{Schaum's Easy Outline of
  Probability and Statistics}.\hskip 1em plus 0.5em minus 0.4em\relax McGraw
  Hill Professional, 2002.

\bibitem{chen:2014}
W.-T. Chen, ``{A Feasible and Easy-to-Implement Anticollision Algorithm for the
  EPCglobal UHF Class-1 Generation-2 RFID Protocol},'' \emph{{Automation
  Science and Engineering, IEEE Transactions on}}, vol.~11, no.~2, pp.
  485--491, April 2014.

\bibitem{klair:2009}
\BIBentryALTinterwordspacing
D.~Klair, K.-W. Chin, and R.~Raad, ``On the energy consumption of pure and
  slotted aloha based \{RFID\} anti-collision protocols,'' \emph{Computer
  Communications}, vol.~32, no.~5, pp. 961 -- 973, 2009. [Online]. Available:
  \url{http://www.sciencedirect.com/science/article/pii/S0140366408006555}
\BIBentrySTDinterwordspacing

\bibitem{chen:2015}
W.~Chen, ``Optimal frame length analysis and an efficient anticollision
  algorithm with early adjustment of frame length for rfid systems,''
  \emph{Vehicular Technology, IEEE Transactions on}, vol.~PP, no.~99, pp. 1--1,
  2015.

\bibitem{he:2013}
Y.~He and X.~Wang, ``{An ALOHA-based improved anti-collision algorithm for RFID
  systems},'' \emph{Wireless Communications, IEEE}, vol.~20, no.~5, pp.
  152--158, October 2013.

\bibitem{shakiba:2014}
M.~Shakiba, M.~J. Singh, E.~Sundararajan, A.~Zavvari, and M.~T. Islam,
  ``{Extending Birthday Paradox Theory to Estimate the Number of Tags in RFID
  Systems},'' \emph{PLoS ONE}, vol.~9, no.~4, p. e95425, April 2014.

\end{thebibliography}
