\relax 
\@writefile{toc}{\contentsline {section}{\numberline {1}}{1}}
\providecommand*\caption@xref[2]{\@setref\relax\@undefined{#1}}
\newlabel{fig:sef1}{{1a}{1}}
\newlabel{sub@fig:sef1}{{a}{1}}
\newlabel{fig:sef2}{{1b}{1}}
\newlabel{sub@fig:sef2}{{b}{1}}
