100	263.846	NA	0.379008967352168	0.840311534959496	0.16362979	0.3681670275	83.518	60.718
200	511.788	NA	0.390786810163583	0.84318563812634	0.326144075	0.73382416875	169.25	117.688
300	757.51	NA	0.396034375783818	0.841898682973499	0.489963945	1.10241887625	250.484	179.426
400	1001.812	NA	0.399276510962137	0.842781494899613	0.652600945	1.46835212625	335.074	236.988
500	1248.86	NA	0.400365133001297	0.842700433846698	0.81582965	1.8356167125	421.53	295.93
600	1500.058	NA	0.399984533931355	0.844714076495064	0.976661835	2.19748912875	521.962	344.976
700	1740.448	NA	0.402195296843112	0.843185887424785	1.141503925	2.56838383125	595.12	411.358
800	1989.57	NA	0.40209693551873	0.844725431693572	1.302198275	2.92994611875	694.28	460.25
900	2236.496	NA	0.40241520664468	0.841553886715096	1.47049407	3.3086116575	763.104	537.732
1000	2467.18	NA	0.405321054807513	0.84220213784162	1.632624685	3.67340554125	834.522	596.428
1100	2723.986	NA	0.403819990264267	0.843736970452373	1.792620275	4.03339561875	945.9	640.806
1200	2962.378	NA	0.405079972913652	0.844346029859253	1.954175115	4.39689400875	1028.948	695.47
1300	3212.304	NA	0.4046939517555	0.844249738282581	2.1172645	4.763845125	1120.78	752.924
1400	3445.126	NA	0.406371203839860	0.843154377269676	2.28309317	5.1369596325	1181.474	824.722
1500	3692.444	NA	0.4062350031578	0.843353269754842	2.44559436	5.50258731	1272.462	880.602
1600	3939.71	NA	0.406121262732536	0.842563929159929	2.611077835	5.87492512875	1352.302	947.548
1700	4173.204	NA	0.407360867093964	0.842872234094932	2.77325543	6.2398247175	1427.346	1005.658
1800	4434.52	NA	0.405906388966562	0.845386729229793	2.92765419	6.5872219275	1565.278	1028.142
1900	4673.292	NA	0.406565650081356	0.84265852859906	3.10030684	6.97569039	1608.498	1123.654
2000	4922.996	NA	0.406256677844142	0.844273847025595	3.257236985	7.32878321625	1723.052	1158.314
