100 0.3364 0.3309 0.3418
200 0.3365 0.3340 0.3390
300 0.3381 0.3364 0.3399
400 0.3401 0.3388 0.3414
500 0.3385 0.3374 0.3396
600 0.3386 0.3377 0.3395
700 0.3390 0.3383 0.3398
800 0.3384 0.3377 0.3390
900 0.3382 0.3375 0.3388
1000 0.3385 0.3380 0.3390
1100 0.3383 0.3378 0.3388
1200 0.3381 0.3376 0.3386
1300 0.3383 0.3379 0.3387
1400 0.3391 0.3387 0.3394
1500 0.3383 0.3380 0.3387
1600 0.3384 0.3380 0.3387
1700 0.3391 0.3388 0.3394
1800 0.3384 0.3381 0.3387
1900 0.3388 0.3385 0.3391
2000 0.3390 0.3388 0.3393
