100	239.94	NA	0.416770859381512	0.876697361807231	0.156838615	0.35288688375	78.438	41.612
200	464.796	NA	0.43029630203358	0.877816764369002	0.313277225	0.70487375625	157.99	81.816
300	682.696	NA	0.439434243059869	0.878261211427526	0.469678035	1.05677557875	231.762	123.064
400	906.368	NA	0.441321847196724	0.876864542842286	0.62723485	1.4112784125	309.58	166.928
500	1127.25	NA	0.443557329784875	0.877444320574123	0.7835255	1.762932375	389.1	206.7
600	1344.234	NA	0.446350858555876	0.87689486617277	0.94081974	2.116844415	460.418	251.086
700	1564.732	NA	0.447360953824681	0.87673789775714	1.097819545	2.47009397625	537.544	293.438
800	1770.9	NA	0.451747698910159	0.87835585486321	1.252339805	2.81776456125	605.866	330.204
900	2006.728	NA	0.448491275349723	0.87760712343809	1.41008427	3.1726896075	699.384	371.484
1000	2219.574	NA	0.450536904829485	0.877151805285109	1.567573585	3.52704056625	765.682	417.452
1100	2447.322	NA	0.449470891039267	0.877522254965196	1.72360301	3.8781067725	855.752	454.34
1200	2668.62	NA	0.44967061627358	0.877390843187037	1.880575815	4.23129558375	934.478	496.292
1300	2875.786	NA	0.452050326415109	0.876655279041288	2.03899987	4.5877497075	990.514	547.082
1400	3084.738	NA	0.453847295945393	0.877364957182197	2.19406985	4.9366571625	1060.78	585.088
1500	3330.422	NA	0.450393373572478	0.876959898543585	2.35187493	5.2917185925	1167.056	623.996
1600	3534.758	NA	0.45264767771938	0.877580074699177	2.506893745	5.64051092625	1231.904	662.934
1700	3753.142	NA	0.452953818427334	0.877768102968721	2.663004035	5.99175907875	1310.432	702.37
1800	3956.81	NA	0.454911911362941	0.878086473955955	2.818629	6.34191525	1372.5	743.66
1900	4230	NA	0.449172576832151	0.8781384367313	2.975043445	6.69384775125	1518.034	770.596
2000	4407.544	NA	0.453767449627275	0.877383738554794	3.134318405	7.05221641125	1534.316	831.858
