100	217.72	NA	0.459305530038582	0.907815405937747	0.15146251	0.3407906475	70.512	27.268
200	420.768	NA	0.475321317210434	0.906170568486106	0.303474875	0.68281846875	139.56	56.458
300	617.49	NA	0.485837827333236	0.907096376582083	0.45474771	1.0231823475	205.702	84.038
400	823.02	NA	0.486014920658064	0.906911077113305	0.606454165	1.36452187125	282.198	110.832
500	1032.21	NA	0.484397554761144	0.9065373028925	0.758380265	1.70635559625	363.168	137.382
600	1230.976	NA	0.487418113756889	0.906384534759493	0.910209705	2.04797183625	431.966	166.08
700	1420.982	NA	0.492617077485851	0.90667640520336	1.06156948	2.38853133	491.816	195.176
800	1625.308	NA	0.492214398747807	0.906543798225503	1.21339973	2.7301493925	567.886	222.422
900	1827.042	NA	0.492599513311681	0.906701054925246	1.36483794	3.070885365	642.318	248.834
1000	2030.198	NA	0.49256279436784	0.906803728258569	1.516314895	3.41170851375	718.484	275.014
1100	2248.838	NA	0.489141503300816	0.906622971016004	1.66827893	3.7536275925	812.176	299.132
1200	2416.828	NA	0.496518577242568	0.906588447753848	1.820009955	4.09502239875	844.006	334.932
1300	2617.462	NA	0.496664325976843	0.906584004328699	1.971687115	4.43629600875	916.528	362.434
1400	2820.564	NA	0.496354629783263	0.906726160840348	2.123022455	4.77680052375	993.626	388.008
1500	3015.24	NA	0.497472837983046	0.90652450076954	2.275172925	5.11913908125	1056.96	418.75
1600	3245.77	NA	0.492949284761397	0.906384215482037	2.427226735	5.46126015375	1165.432	440.178
1700	3408.468	NA	0.498757799691826	0.906367256538103	2.57897666	5.802697485	1190.802	477.326
1800	3582.89	NA	0.502387737273542	0.906333632450897	2.730782475	6.14426056875	1230.57	511.76
1900	3827.57	NA	0.496398498263912	0.906173559978654	2.883001795	6.48675403875	1356.204	530.246
2000	3991.258	NA	0.501095143435979	0.906288654086489	3.034353335	6.82729500375	1384.112	565.706
