\relax 
\catcode`"\active
\select@language{brazil}
\@writefile{toc}{\select@language{brazil}}
\@writefile{lof}{\select@language{brazil}}
\@writefile{lot}{\select@language{brazil}}
\@writefile{loa}{\contentsline {algocf}{\numberline {1}{\ignorespaces Mecanismo implementado nas etiquetas para garantia de QoS em aplica\c c\~oes da IoT para rastreamento e localiza\c c\~ao}}{3}}
\@writefile{loa}{\contentsline {algocf}{\numberline {2}{\ignorespaces Algoritmo anti-colis\~ao probabil\IeC {\'\i }stico implementado nas etiquetas}}{11}}
